{"projectId":"586ea59ece3b3061d5376cee","subtype":"New Application","shortTitle":"GReGC1_Kevin","longTitle":"GReGC1_Kevin","sponsorDeadlineDate":"2017-02-28T06:30:00.000Z","isAfterTheFact":false,"people":[{"firstName":"Joseph","lastName":"Zunt","role":"Principal Investigator","email":"jzunt@u.washington.edu","employeeId":"877002980"},{"firstName":"Joseph","lastName":"Zunt","role":"eGC1 Preparer","email":"jzunt@u.washington.edu","employeeId":"877002980"}],"budgets":[],"sponsor":{"name":"National Institutes of Health (NIH)","type":"Federal Government"},"pi":{"firstName":"Joseph","lastName":"Zunt","employeeId":"877002980"},"link":{"genericName":"View eGC1 in SAGE","name":"View eGC1 #A133298 in SAGE","url":"https://eval-sage.admin.uw.edu/eraSquirrelMiner/uwnetid/sage/list.aspx?caid=133298&pg=details"},"familyId":"A133298","exposedItems":[{"itemId":"A133298","type":"application","hold":null,"status":{"egc1":{"name":"Composing","display":"Composing","actionDate":"2017-01-05T19:59:23.710Z","comment":"Application Created in SAGE","actionUser":{"firstName":"Joseph","lastName":"Zunt"}},"s2s":null,"resolved":{"name":"Composing","display":"Composing","actionDate":"2017-01-05T19:59:23.710Z","comment":"Application Created in SAGE","actionUser":{"firstName":"Joseph","lastName":"Zunt"},"phase":"APPLICATION.1"}},"budget":null,"isEndState":false,"isSuccessState":false,"isBlocked":null,"link":{"name":"Edit in SAGE","url":"https://eval-sage.admin.uw.edu/eraSquirrelMiner/uwnetid/sage/list.aspx?caid=133298&pg=details"},"contact":null,"comments":[],"isGrantRunner":true,"agencyTrackingNumber":null,"grantsGovTrackingNumber":null}],"relatedApplications":[],"exposedHistory":[]},
{"projectId":"586ea627ce3b3061d5376cf1","subtype":"New Application","shortTitle":"Short GReGC2_kevin","longTitle":"GReGC2_kevin","sponsorDeadlineDate":"2017-02-28T06:30:00.000Z","isAfterTheFact":false,"people":[{"firstName":"Joseph","lastName":"Zunt","role":"Principal Investigator","email":"jzunt@u.washington.edu","employeeId":"877002980"},{"firstName":"Joseph","lastName":"Zunt","role":"Administrative Contact","email":"jzunt@u.washington.edu","employeeId":"877002980"},{"firstName":"Joseph","lastName":"Zunt","role":"Budget Contact","email":"jzunt@u.washington.edu","employeeId":"877002980"},{"firstName":"Joseph","lastName":"Zunt","role":"eGC1 Preparer","email":"jzunt@u.washington.edu","employeeId":"877002980"}],"budgets":[],"sponsor":{"name":"National Institutes of Health (NIH)","type":"Federal Government"},"pi":{"firstName":"Joseph","lastName":"Zunt","employeeId":"877002980"},"link":{"genericName":"View eGC1 in SAGE","name":"View eGC1 #A133299 in SAGE","url":"https://eval-sage.admin.uw.edu/eraSquirrelMiner/uwnetid/sage/list.aspx?caid=133299&pg=details"},"familyId":"A133299","exposedItems":[{"itemId":"A133299","type":"application","hold":null,"status":{"egc1":{"name":"Routing","display":"Routing","actionDate":"2017-01-05T20:06:58.927Z","comment":"Application Completed in SAGE","actionUser":{"firstName":"Joseph","lastName":"Zunt"}},"s2s":null,"resolved":{"name":"Routing","display":"Routing","actionDate":"2017-01-05T20:06:58.927Z","comment":"Application Completed in SAGE","actionUser":{"firstName":"Joseph","lastName":"Zunt"},"phase":"APPLICATION.2"}},"budget":null,"isEndState":false,"isSuccessState":false,"isBlocked":null,"link":{"name":"View Routing Status in SAGE","url":"https://eval-sage.admin.uw.edu/eraSquirrelMiner/uwnetid/sage/list.aspx?caid=133299&pg=finalize"},"contact":null,"comments":[],"isGrantRunner":true,"agencyTrackingNumber":null,"grantsGovTrackingNumber":null}],"exposedHistory":[{"_id":"586ea765ce3b3061d5376cf4","comment":"Application Completed in SAGE","historyId":"H1966931","name":"Routing","display":"Routing","actionDate":"2017-01-05T20:06:58.927Z","projectId":"586ea627ce3b3061d5376cf1","itemId":"A133299","itemType":"application","historyType":"status","lastRefreshDate":"2017-01-05T20:07:01.996Z","actionUser":{"firstName":"Joseph","lastName":"Zunt"},"id":"586ea765ce3b3061d5376cf4"}],"relatedApplications":[]},
{"projectId":"586ea7b3ce3b3061d5376cf6","subtype":"New Application","shortTitle":"Short GR eGC3_kevin","longTitle":"GReGC3_kevin","sponsorDeadlineDate":"2017-02-28T05:00:01.000Z","isAfterTheFact":false,"people":[{"firstName":"Joseph","lastName":"Zunt","role":"Principal Investigator","email":"jzunt@u.washington.edu","employeeId":"877002980"},{"firstName":"Joseph","lastName":"Zunt","role":"Administrative Contact","email":"jzunt@u.washington.edu","employeeId":"877002980"},{"firstName":"Joseph","lastName":"Zunt","role":"Budget Contact","email":"jzunt@u.washington.edu","employeeId":"877002980"},{"firstName":"Joseph","lastName":"Zunt","role":"eGC1 Preparer","email":"jzunt@u.washington.edu","employeeId":"877002980"}],"budgets":[],"sponsor":{"name":"National Institutes of Health (NIH)","type":"Federal Government"},"pi":{"firstName":"Joseph","lastName":"Zunt","employeeId":"877002980"},"link":{"genericName":"View eGC1 in SAGE","name":"View eGC1 #A133300 in SAGE","url":"https://eval-sage.admin.uw.edu/eraSquirrelMiner/uwnetid/sage/list.aspx?caid=133300&pg=details"},"familyId":"A133300","exposedItems":[{"itemId":"A133300","type":"application","hold":null,"status":{"egc1":{"name":"In OSP","display":"OSP Reviewing","actionDate":"2017-01-05T20:13:20.723Z","comment":"Automatically received In OSP by SAGE.","actionUser":{"firstName":"V.","lastName":"Douglas"}},"s2s":null,"resolved":{"name":"In OSP","display":"OSP Reviewing","actionDate":"2017-01-05T20:13:20.723Z","comment":"Automatically received In OSP by SAGE.","actionUser":{"firstName":"V.","lastName":"Douglas"},"phase":"APPLICATION.3"}},"budget":null,"isEndState":false,"isSuccessState":false,"isBlocked":null,"link":null,"contact":{"context":"OSP","displayName":"OSP Helpdesk","email":["osp@uw.edu"],"phone":["+1 206 543-4043"],"department":null,"regId":"D15D69FC90924673B06820A0311DFFEF"},"comments":[],"isGrantRunner":true,"agencyTrackingNumber":null,"grantsGovTrackingNumber":null}],"relatedApplications":[],"exposedHistory":[{"_id":"586ea7b3ce3b3061d5376cf8","comment":"Application Created in SAGE","historyId":"H1966932","name":"Composing","display":"Composing","actionDate":"2017-01-05T20:08:16.803Z","projectId":"586ea7b3ce3b3061d5376cf6","itemId":"A133300","itemType":"application","historyType":"status","lastRefreshDate":"2017-01-05T20:13:23.392Z","actionUser":{"firstName":"Joseph","lastName":"Zunt"},"id":"586ea7b3ce3b3061d5376cf8"}]},
{"projectId":"5865739ece3b3061d5371155","subtype":"New Application","shortTitle":"Short UpdatedGR eGC1-3","longTitle":"Updated GR eGC1-3","sponsorDeadlineDate":"2018-12-28T05:30:00.000Z","isAfterTheFact":false,"people":[{"firstName":"Joseph","lastName":"Zunt","role":"Principal Investigator","email":"jzunt@u.washington.edu","employeeId":"877002980"},{"firstName":"Joseph","lastName":"Zunt","role":"Administrative Contact","email":"jzunt@u.washington.edu","employeeId":"877002980"},{"firstName":"Sirisha","lastName":"Konyala","role":"Budget Contact","email":"sirisk@uw.edu","employeeId":"847004512"},{"firstName":"Joseph","lastName":"Zunt","role":"eGC1 Preparer","email":"jzunt@u.washington.edu","employeeId":"877002980"}],"budgets":[],"sponsor":{"name":"National Institutes of Health (NIH)","type":"Federal Government"},"pi":{"firstName":"Joseph","lastName":"Zunt","employeeId":"877002980"},"link":{"genericName":"View eGC1 in SAGE","name":"View eGC1 #A132294 in SAGE","url":"https://eval-sage.admin.uw.edu/eraSquirrelMiner/uwnetid/sage/list.aspx?caid=132294&pg=details"},"familyId":"A132294","exposedItems":[{"itemId":"A132294","type":"application","hold":null,"status":{"egc1":{"name":"In OSP","display":"OSP Reviewing","actionDate":"2016-12-29T20:41:04.413Z","comment":"Automatically received In OSP by SAGE.","actionUser":{"firstName":"Kristen","lastName":"Emanuel"}},"s2s":{"name":"Submitted","display":"Sent to Grants.gov","actionDate":"2017-01-05T21:23:39.483Z","comment":"Submitted to Grants.gov with Grant Tracking #GRANT00661873"},"resolved":{"name":"Submitted","display":"Sent to Grants.gov","actionDate":"2017-01-05T21:23:39.483Z","comment":"Submitted to Grants.gov with Grant Tracking #GRANT00661873","phase":"APPLICATION.3"}},"budget":null,"isEndState":false,"isSuccessState":false,"isBlocked":null,"link":null,"contact":{"context":"OSP","displayName":"OSP Helpdesk","email":["osp@uw.edu"],"phone":["+1 206 543-4043"],"department":null,"regId":"D15D69FC90924673B06820A0311DFFEF"},"comments":[],"isGrantRunner":true,"agencyTrackingNumber":null,"grantsGovTrackingNumber":"GRANT00661873"}],"exposedHistory":[{"_id":"5873e7f6ce3b3061d5378986","actionDate":"2017-01-05T21:23:39.483Z","comment":"Submitted to Grants.gov with Grant Tracking #GRANT00661873","historyId":"G821603","name":"Submitted","display":"Sent to Grants.gov","projectId":"5865739ece3b3061d5371155","itemId":"A132294","itemType":"application","historyType":"s2sStatus","lastRefreshDate":"2017-01-09T19:43:54.442Z","id":"5873e7f6ce3b3061d5378986"},{"_id":"586574b3ce3b3061d5371158","comment":"Application Completed in SAGE","historyId":"H1962154","name":"Routing","display":"Routing","actionDate":"2016-12-29T20:40:16.820Z","projectId":"5865739ece3b3061d5371155","itemId":"A132294","itemType":"application","historyType":"status","lastRefreshDate":"2017-01-09T19:43:54.440Z","actionUser":{"firstName":"Joseph","lastName":"Zunt"},"id":"586574b3ce3b3061d5371158"},{"_id":"5865739fce3b3061d5371157","comment":"Application Created in SAGE","historyId":"H1962153","name":"Composing","display":"Composing","actionDate":"2016-12-29T20:35:41.023Z","projectId":"5865739ece3b3061d5371155","itemId":"A132294","itemType":"application","historyType":"status","lastRefreshDate":"2017-01-09T19:43:54.441Z","actionUser":{"firstName":"Joseph","lastName":"Zunt"},"id":"5865739fce3b3061d5371157"}],"relatedApplications":[]},
{"projectId":"586eab5cce3b3061d5376d02","subtype":"New Application","shortTitle":"Short GReGC4_kevin","longTitle":"GReGC4_kevin","sponsorDeadlineDate":"2017-02-28T05:30:00.000Z","isAfterTheFact":false,"wasSubmittedToSponsorByOsp":true,"people":[{"firstName":"Joseph","lastName":"Zunt","role":"Principal Investigator","email":"jzunt@u.washington.edu","employeeId":"877002980"},{"firstName":"Joseph","lastName":"Zunt","role":"Administrative Contact","email":"jzunt@u.washington.edu","employeeId":"877002980"},{"firstName":"Joseph","lastName":"Zunt","role":"Budget Contact","email":"jzunt@u.washington.edu","employeeId":"877002980"},{"firstName":"Sirisha","lastName":"Konyala","role":"eGC1 Preparer","email":"sirisk@uw.edu","employeeId":"847004512"}],"budgets":[],"sponsor":{"name":"National Institutes of Health (NIH)","type":"Federal Government"},"pi":{"firstName":"Joseph","lastName":"Zunt","employeeId":"877002980"},"link":{"genericName":"View eGC1 in SAGE","name":"View eGC1 #A133301 in SAGE","url":"https://eval-sage.admin.uw.edu/eraSquirrelMiner/uwnetid/sage/list.aspx?caid=133301&pg=details"},"familyId":"A133301","exposedItems":[{"itemId":"A133301","type":"application","hold":null,"status":{"egc1":{"name":"Approved","display":"Approved by OSP","actionDate":"2017-01-05T20:24:00.907Z","comment":"Test","actionUser":{"firstName":"SIRISHA","lastName":"KONYALA"}},"s2s":null,"resolved":{"name":"Approved","display":"Approved by OSP","actionDate":"2017-01-05T20:24:00.907Z","comment":"Test","actionUser":{"firstName":"SIRISHA","lastName":"KONYALA"},"phase":"APPLICATION.4"}},"budget":null,"isEndState":false,"isSuccessState":false,"isBlocked":null,"link":null,"contact":null,"comments":[],"isGrantRunner":true,"agencyTrackingNumber":null,"grantsGovTrackingNumber":null}],"relatedApplications":[],"exposedHistory":[]},
{"projectId":"586eba11ce3b3061d5376d2d","subtype":"New Application","shortTitle":"Short Update GR eGC1-4","longTitle":"Updated GReGC1-4","sponsorDeadlineDate":"2018-01-26T07:00:01.000Z","isAfterTheFact":false,"wasSubmittedToSponsorByOsp":true,"people":[{"firstName":"Joseph","lastName":"Zunt","role":"Principal Investigator","email":"jzunt@u.washington.edu","employeeId":"877002980"},{"firstName":"Joseph","lastName":"Zunt","role":"Administrative Contact","email":"jzunt@u.washington.edu","employeeId":"877002980"},{"firstName":"Sirisha","lastName":"Konyala","role":"Budget Contact","email":"sirisk@uw.edu","employeeId":"847004512"},{"firstName":"Sirisha","lastName":"Konyala","role":"eGC1 Preparer","email":"sirisk@uw.edu","employeeId":"847004512"}],"budgets":[],"sponsor":{"name":"National Institutes of Health (NIH)","type":"Federal Government"},"pi":{"firstName":"Joseph","lastName":"Zunt","employeeId":"877002980"},"link":{"genericName":"View eGC1 in SAGE","name":"View eGC1 #A132295 in SAGE","url":"https://eval-sage.admin.uw.edu/eraSquirrelMiner/uwnetid/sage/list.aspx?caid=132295&pg=details"},"familyId":"A132295","exposedItems":[{"itemId":"A132295","type":"application","hold":null,"status":{"egc1":{"name":"Approved","display":"Approved by OSP","actionDate":"2017-01-05T21:26:42.547Z","comment":"Test","actionUser":{"firstName":"SIRISHA","lastName":"KONYALA"}},"s2s":{"name":"Submitted","display":"Sent to Sponsor","actionDate":"2017-01-05T21:26:24.567Z","comment":"Submitted"},"resolved":{"name":"Submitted","display":"Sent to Grants.gov","actionDate":"2017-01-05T21:26:24.567Z","comment":"Submitted","phase":"APPLICATION.3"}},"budget":null,"isEndState":false,"isSuccessState":false,"isBlocked":null,"link":null,"contact":{"context":"OSP","displayName":"OSP Helpdesk","email":["osp@uw.edu"],"phone":["+1 206 543-4043"],"department":null},"comments":[],"isGrantRunner":true,"agencyTrackingNumber":null,"grantsGovTrackingNumber":"GRANT00661874"}],"relatedApplications":[],"exposedHistory":[{"_id":"586eba11ce3b3061d5376d35","actionDate":"2017-01-05T21:26:24.567Z","comment":"Submitted","historyId":"G821609","name":"Submitted","display":"Sent to Sponsor","projectId":"586eba11ce3b3061d5376d2d","itemId":"A132295","itemType":"application","historyType":"s2sStatus","lastRefreshDate":"2017-01-05T21:26:44.917Z","id":"586eba11ce3b3061d5376d35"},{"_id":"586eba11ce3b3061d5376d2f","comment":"Application Completed in SAGE","historyId":"H1962157","name":"Routing","display":"Routing","actionDate":"2016-12-29T20:49:26.073Z","projectId":"586eba11ce3b3061d5376d2d","itemId":"A132295","itemType":"application","historyType":"status","lastRefreshDate":"2017-01-05T21:26:44.915Z","actionUser":{"firstName":"Joseph","lastName":"Zunt"},"id":"586eba11ce3b3061d5376d2f"},{"_id":"586eba11ce3b3061d5376d32","comment":"Application Created in SAGE","historyId":"H1962156","name":"Composing","display":"Composing","actionDate":"2016-12-29T20:43:39.743Z","projectId":"586eba11ce3b3061d5376d2d","itemId":"A132295","itemType":"application","historyType":"status","lastRefreshDate":"2017-01-05T21:26:44.915Z","actionUser":{"firstName":"SIRISHA","lastName":"KONYALA"},"id":"586eba11ce3b3061d5376d32"}]},
{"projectId":"586eb361ce3b3061d5376d11","subtype":"New Application","shortTitle":"ShortGReGC6_kevin","longTitle":"GReGC6_kevin","sponsorDeadlineDate":"2017-02-28T05:00:01.000Z","isAfterTheFact":false,"people":[{"firstName":"Joseph","lastName":"Zunt","role":"Principal Investigator","email":"jzunt@u.washington.edu","employeeId":"877002980"},{"firstName":"Joseph","lastName":"Zunt","role":"Administrative Contact","email":"jzunt@u.washington.edu","employeeId":"877002980"},{"firstName":"Joseph","lastName":"Zunt","role":"Budget Contact","email":"jzunt@u.washington.edu","employeeId":"877002980"},{"firstName":"Joseph","lastName":"Zunt","role":"eGC1 Preparer","email":"jzunt@u.washington.edu","employeeId":"877002980"}],"budgets":[],"sponsor":{"name":"National Institutes of Health (NIH)","type":"Federal Government"},"pi":{"firstName":"Joseph","lastName":"Zunt","employeeId":"877002980"},"link":{"genericName":"View eGC1 in SAGE","name":"View eGC1 #A133303 in SAGE","url":"https://eval-sage.admin.uw.edu/eraSquirrelMiner/uwnetid/sage/list.aspx?caid=133303&pg=details"},"familyId":"A133303","exposedItems":[{"itemId":"A133303","type":"application","hold":null,"status":{"egc1":{"name":"Withdrawn","display":"Withdrawn","actionDate":"2017-01-05T21:07:52.007Z","comment":"Application Withdrawn in SAGE","actionUser":{"firstName":"Joseph","lastName":"Zunt"}},"s2s":null,"resolved":{"name":"Withdrawn","display":"Withdrawn","actionDate":"2017-01-05T21:07:52.007Z","comment":"Application Withdrawn in SAGE","actionUser":{"firstName":"Joseph","lastName":"Zunt"},"phase":"APPLICATION.1"}},"budget":null,"isEndState":false,"isSuccessState":false,"isBlocked":null,"link":{"name":"Edit in SAGE","url":"https://eval-sage.admin.uw.edu/eraSquirrelMiner/uwnetid/sage/list.aspx?caid=133303&pg=details"},"contact":null,"comments":[],"isGrantRunner":true,"agencyTrackingNumber":null,"grantsGovTrackingNumber":null}],"relatedApplications":[],"exposedHistory":[{"_id":"586eb5a0ce3b3061d5376d14","comment":"Application Completed in SAGE","historyId":"H1966944","name":"Routing","display":"Routing","actionDate":"2017-01-05T21:07:41.380Z","projectId":"586eb361ce3b3061d5376d11","itemId":"A133303","itemType":"application","historyType":"status","lastRefreshDate":"2017-01-05T21:07:54.530Z","actionUser":{"firstName":"Joseph","lastName":"Zunt"},"id":"586eb5a0ce3b3061d5376d14"}]},
{"projectId":"586eb77ace3b3061d5376d1d","subtype":"New Application","shortTitle":"ShortGReGC7_kevin","longTitle":"GReGC7_kevin","sponsorDeadlineDate":"2017-02-28T05:30:00.000Z","isAfterTheFact":false,"people":[{"firstName":"Joseph","lastName":"Zunt","role":"Principal Investigator","email":"jzunt@u.washington.edu","employeeId":"877002980"},{"firstName":"Joseph","lastName":"Zunt","role":"Administrative Contact","email":"jzunt@u.washington.edu","employeeId":"877002980"},{"firstName":"Joseph","lastName":"Zunt","role":"Budget Contact","email":"jzunt@u.washington.edu","employeeId":"877002980"},{"firstName":"Joseph","lastName":"Zunt","role":"eGC1 Preparer","email":"jzunt@u.washington.edu","employeeId":"877002980"}],"budgets":[],"sponsor":{"name":"National Institutes of Health (NIH)","type":"Federal Government"},"pi":{"firstName":"Joseph","lastName":"Zunt","employeeId":"877002980"},"link":{"genericName":"View eGC1 in SAGE","name":"View eGC1 #A133304 in SAGE","url":"https://eval-sage.admin.uw.edu/eraSquirrelMiner/uwnetid/sage/list.aspx?caid=133304&pg=details"},"familyId":"A133304","exposedItems":[{"itemId":"A133304","type":"application","hold":null,"status":{"egc1":{"name":"Awarded","display":"Awarded","actionDate":"2017-01-05T21:16:23.393Z","comment":"Test","actionUser":{"firstName":"SIRISHA","lastName":"KONYALA"}},"s2s":{"name":"Submitted","display":"Sent to Sponsor","actionDate":"2017-01-05T21:16:02.913Z","comment":"Submitted"},"resolved":{"name":"Awarded","display":"Awarded","actionDate":"2017-01-05T21:16:23.393Z","comment":"Test","actionUser":{"firstName":"SIRISHA","lastName":"KONYALA"},"phase":null}},"budget":null,"isEndState":true,"isSuccessState":true,"isBlocked":null,"link":null,"contact":null,"comments":[],"isGrantRunner":true,"agencyTrackingNumber":null,"grantsGovTrackingNumber":"GRANT00661871"}],"relatedApplications":[],"exposedHistory":[{"_id":"586eb7a9ce3b3061d5376d2a","actionDate":"2017-01-05T21:16:02.913Z","comment":"Submitted","historyId":"G821591","name":"Submitted","display":"Sent to Sponsor","projectId":"586eb77ace3b3061d5376d1d","itemId":"A133304","itemType":"application","historyType":"s2sStatus","lastRefreshDate":"2017-01-05T21:16:25.805Z","id":"586eb7a9ce3b3061d5376d2a"}]},
{"projectId":"586eabe0ce3b3061d5376d0a","subtype":"New Application","shortTitle":"ShortGR_eGC5_Kevin","longTitle":"GR_eGC5_Kevin","sponsorDeadlineDate":"2017-02-28T06:30:00.000Z","isAfterTheFact":false,"people":[{"firstName":"Joseph","lastName":"Zunt","role":"Principal Investigator","email":"jzunt@u.washington.edu","employeeId":"877002980"},{"firstName":"Joseph","lastName":"Zunt","role":"Administrative Contact","email":"jzunt@u.washington.edu","employeeId":"877002980"},{"firstName":"Joseph","lastName":"Zunt","role":"Budget Contact","email":"jzunt@u.washington.edu","employeeId":"877002980"},{"firstName":"Joseph","lastName":"Zunt","role":"eGC1 Preparer","email":"jzunt@u.washington.edu","employeeId":"877002980"}],"budgets":[],"sponsor":{"name":"National Institutes of Health (NIH)","type":"Federal Government"},"pi":{"firstName":"Joseph","lastName":"Zunt","employeeId":"877002980"},"link":{"genericName":"View eGC1 in SAGE","name":"View eGC1 #A133302 in SAGE","url":"https://eval-sage.admin.uw.edu/eraSquirrelMiner/uwnetid/sage/list.aspx?caid=133302&pg=details"},"familyId":"A133302","exposedItems":[{"itemId":"A133302","type":"application","hold":null,"status":{"egc1":{"name":"Returned","display":"Returned","actionDate":"2017-01-05T20:32:32.203Z","comment":"Test","actionUser":{"firstName":"SIRISHA","lastName":"KONYALA"}},"s2s":null,"resolved":{"name":"Returned","display":"Returned","actionDate":"2017-01-05T20:32:32.203Z","comment":"Test","actionUser":{"firstName":"SIRISHA","lastName":"KONYALA"},"phase":"APPLICATION.1"}},"budget":null,"isEndState":false,"isSuccessState":false,"isBlocked":null,"link":{"name":"Edit in SAGE","url":"https://eval-sage.admin.uw.edu/eraSquirrelMiner/uwnetid/sage/list.aspx?caid=133302&pg=details"},"contact":null,"comments":[],"isGrantRunner":true,"agencyTrackingNumber":null,"grantsGovTrackingNumber":null}],"relatedApplications":[],"exposedHistory":[{"_id":"586eacd4ce3b3061d5376d0d","comment":"Application Completed in SAGE","historyId":"H1966940","name":"Routing","display":"Routing","actionDate":"2017-01-05T20:30:09.720Z","projectId":"586eabe0ce3b3061d5376d0a","itemId":"A133302","itemType":"application","historyType":"status","lastRefreshDate":"2017-01-05T20:32:34.941Z","actionUser":{"firstName":"Joseph","lastName":"Zunt"},"id":"586eacd4ce3b3061d5376d0d"},{"_id":"586eabe0ce3b3061d5376d0c","comment":"Application Created in SAGE","historyId":"H1966939","name":"Composing","display":"Composing","actionDate":"2017-01-05T20:26:06.033Z","projectId":"586eabe0ce3b3061d5376d0a","itemId":"A133302","itemType":"application","historyType":"status","lastRefreshDate":"2017-01-05T20:32:34.942Z","actionUser":{"firstName":"Joseph","lastName":"Zunt"},"id":"586eabe0ce3b3061d5376d0c"}]},
{"projectId":"567ba12b4b24038af67e8c36","subtype":"New Application","shortTitle":"fMRI Data Acquisition","longTitle":"Dissemination of Interoperable Tools for Time-Aware fMRI Data Acquisition and Processing","sponsorDeadlineDate":"2009-05-15T07:00:00.000Z","isAfterTheFact":false,"wasSubmittedToSponsorByOsp":true,"people":[{"firstName":"Thomas","lastName":"Grabowski","role":"Principal Investigator","email":"tgrabow@u.washington.edu","employeeId":"856004075","regId":"E4FB7FEC68594B4AB2427C6C2593FFA5"},{"firstName":"Keith","lastName":"Stegbauer","role":"Key Personnel","email":"stegbk@u.washington.edu","employeeId":"876001227","regId":"71CDACBE6A7D11D5A4AE0004AC494FFE"},{"firstName":"Todd","lastName":"Richards","role":"Key Personnel","email":"toddr@u.washington.edu","employeeId":"875008652","regId":"D1A08B126A7C11D5A4AE0004AC494FFE"},{"firstName":"Helen","lastName":"Powell","role":"Administrative Contact","email":"hp@u.washington.edu","employeeId":"874005291","regId":"854877746A7D11D5A4AE0004AC494FFE"},{"firstName":"Jill","lastName":"Griffin","role":"Budget Contact","email":"jillray@u.washington.edu","employeeId":"862004599","regId":"D22369B6468D11D8B6FB000629C31437"},{"firstName":"Jill","lastName":"Griffin","role":"eGC1 Preparer","email":"jillray@u.washington.edu","employeeId":"862004599","regId":"D22369B6468D11D8B6FB000629C31437"}],"budgets":[],"sponsor":{"name":"National Institutes of Health (NIH)","type":"Federal Government"},"pi":{"firstName":"Thomas","lastName":"Grabowski","employeeId":"856004075"},"link":{"genericName":"View eGC1 in SAGE","name":"View eGC1 #A49601 in SAGE","url":"https://eval-sage.admin.uw.edu/eraSquirrelMiner/uwnetid/sage/list.aspx?caid=49601&pg=details"},"familyId":"A49601","exposedItems":[{"itemId":"A49601","type":"application","hold":null,"status":{"egc1":{"name":"Approved","display":"Approved by OSP","actionDate":"2009-05-20T21:17:59.443Z","comment":"Upon award, ensure IRB and IACUC approvals are current.","actionUser":{"firstName":"Erik J.","lastName":"Kachmarsky"}},"s2s":{"name":"Error Post-Transmit","display":"Error Post-Transmit","actionDate":"2009-05-14T19:50:07.057Z","comment":"Sponsor or Grants.gov System Errors"},"resolved":{"name":"Error Post-Transmit","display":"Sent to Grants.gov","actionDate":"2009-05-14T19:50:07.057Z","comment":"Sponsor or Grants.gov System Errors","phase":"APPLICATION.3"}},"budget":null,"isEndState":false,"isSuccessState":false,"isBlocked":null,"link":null,"contact":{"context":"OSP","displayName":"OSP Helpdesk","email":["osp@uw.edu"],"phone":["+1 206 543-4043"],"department":null},"comments":[],"isGrantRunner":true,"agencyTrackingNumber":null,"grantsGovTrackingNumber":"GRANT10319624"}],"relatedApplications":[],"exposedHistory":[{"_id":"5873c5d3ce3b3061d537892d","actionDate":"2009-05-14T19:35:09.343Z","comment":"Submitted to Grants.gov with Grant Tracking #GRANT10319624","historyId":"G841","name":"Submitted","display":"Sent to Grants.gov","projectId":"567ba12b4b24038af67e8c36","itemId":"A49601","itemType":"application","historyType":"s2sStatus","lastRefreshDate":"2017-01-26T02:22:41.765Z","id":"5873c5d3ce3b3061d537892d"},{"_id":"567ba13f4b24038af67e8c7e","comment":"Automatically received In OSP by SAGE.","historyId":"H418145","name":"In OSP","display":"OSP Reviewing","actionDate":"2009-05-14T17:30:23.807Z","projectId":"567ba12b4b24038af67e8c36","itemId":"A49601","itemType":"application","historyType":"status","lastRefreshDate":"2017-01-26T02:22:41.745Z","actionUser":{"firstName":"Jill","lastName":"Camp"},"id":"567ba13f4b24038af67e8c7e"},{"_id":"567ba13f4b24038af67e8c7d","comment":"Application Completed in SAGE","historyId":"H418144","name":"Routing","display":"Routing","actionDate":"2009-05-14T17:30:23.147Z","projectId":"567ba12b4b24038af67e8c36","itemId":"A49601","itemType":"application","historyType":"status","lastRefreshDate":"2017-01-26T02:22:41.746Z","actionUser":{"firstName":"Jill","lastName":"Camp"},"id":"567ba13f4b24038af67e8c7d"},{"_id":"567ba1414b24038af67e8c84","comment":"Application Withdrawn in SAGE","historyId":"H418131","name":"Withdrawn","display":"Withdrawn","actionDate":"2009-05-14T17:17:37.030Z","projectId":"567ba12b4b24038af67e8c36","itemId":"A49601","itemType":"application","historyType":"status","lastRefreshDate":"2017-01-26T02:22:41.746Z","actionUser":{"firstName":"Jill","lastName":"Camp"},"id":"567ba1414b24038af67e8c84"},{"_id":"5873c5d3ce3b3061d537892a","actionDate":"2009-05-13T22:52:28.310Z","comment":"Submitted to Grants.gov with Grant Tracking #GRANT10318664","historyId":"G826","name":"Submitted","display":"Sent to Grants.gov","projectId":"567ba12b4b24038af67e8c36","itemId":"A49601","itemType":"application","historyType":"s2sStatus","lastRefreshDate":"2017-01-26T02:22:41.765Z","id":"5873c5d3ce3b3061d537892a"},{"_id":"567ba13d4b24038af67e8c77","comment":"Automatically received In OSP by SAGE.","historyId":"H417402","name":"In OSP","display":"OSP Reviewing","actionDate":"2009-05-12T21:29:56.560Z","projectId":"567ba12b4b24038af67e8c36","itemId":"A49601","itemType":"application","historyType":"status","lastRefreshDate":"2017-01-26T02:22:41.747Z","actionUser":{"firstName":"Jill","lastName":"Camp"},"id":"567ba13d4b24038af67e8c77"},{"_id":"567ba13e4b24038af67e8c7b","comment":"Application Completed in SAGE","historyId":"H417401","name":"Routing","display":"Routing","actionDate":"2009-05-12T21:29:55.983Z","projectId":"567ba12b4b24038af67e8c36","itemId":"A49601","itemType":"application","historyType":"status","lastRefreshDate":"2017-01-26T02:22:41.747Z","actionUser":{"firstName":"Jill","lastName":"Camp"},"id":"567ba13e4b24038af67e8c7b"},{"_id":"567ba13e4b24038af67e8c79","comment":"Application Withdrawn in SAGE","historyId":"H417400","name":"Withdrawn","display":"Withdrawn","actionDate":"2009-05-12T21:27:50.360Z","projectId":"567ba12b4b24038af67e8c36","itemId":"A49601","itemType":"application","historyType":"status","lastRefreshDate":"2017-01-26T02:22:41.748Z","actionUser":{"firstName":"Jill","lastName":"Camp"},"id":"567ba13e4b24038af67e8c79"},{"_id":"567ba13e4b24038af67e8c78","comment":"Automatically received In OSP by SAGE.","historyId":"H417397","name":"In OSP","display":"OSP Reviewing","actionDate":"2009-05-12T21:20:53.480Z","projectId":"567ba12b4b24038af67e8c36","itemId":"A49601","itemType":"application","historyType":"status","lastRefreshDate":"2017-01-26T02:22:41.749Z","actionUser":{"firstName":"V.","lastName":"Douglas"},"id":"567ba13e4b24038af67e8c78"},{"_id":"567ba13b4b24038af67e8c6e","comment":"Application Completed in SAGE","historyId":"H417134","name":"Routing","display":"Routing","actionDate":"2009-05-12T16:20:43.857Z","projectId":"567ba12b4b24038af67e8c36","itemId":"A49601","itemType":"application","historyType":"status","lastRefreshDate":"2017-01-26T02:22:41.749Z","actionUser":{"firstName":"Jill","lastName":"Camp"},"id":"567ba13b4b24038af67e8c6e"},{"_id":"567ba13b4b24038af67e8c6f","comment":"Application Withdrawn in SAGE","historyId":"H417133","name":"Withdrawn","display":"Withdrawn","actionDate":"2009-05-12T16:20:16.837Z","projectId":"567ba12b4b24038af67e8c36","itemId":"A49601","itemType":"application","historyType":"status","lastRefreshDate":"2017-01-26T02:22:41.750Z","actionUser":{"firstName":"Jill","lastName":"Camp"},"id":"567ba13b4b24038af67e8c6f"},{"_id":"567ba13b4b24038af67e8c71","comment":"Application Completed in SAGE","historyId":"H417131","name":"Routing","display":"Routing","actionDate":"2009-05-12T16:19:30.160Z","projectId":"567ba12b4b24038af67e8c36","itemId":"A49601","itemType":"application","historyType":"status","lastRefreshDate":"2017-01-26T02:22:41.755Z","actionUser":{"firstName":"Jill","lastName":"Camp"},"id":"567ba13b4b24038af67e8c71"},{"_id":"567ba13f4b24038af67e8c7f","comment":"Application Withdrawn in SAGE","historyId":"H416942","name":"Withdrawn","display":"Withdrawn","actionDate":"2009-05-11T21:46:46.927Z","projectId":"567ba12b4b24038af67e8c36","itemId":"A49601","itemType":"application","historyType":"status","lastRefreshDate":"2017-01-26T02:22:41.754Z","actionUser":{"firstName":"Jill","lastName":"Camp"},"id":"567ba13f4b24038af67e8c7f"},{"_id":"567ba13b4b24038af67e8c72","comment":"Application Completed in SAGE","historyId":"H416734","name":"Routing","display":"Routing","actionDate":"2009-05-11T17:42:15.257Z","projectId":"567ba12b4b24038af67e8c36","itemId":"A49601","itemType":"application","historyType":"status","lastRefreshDate":"2017-01-26T02:22:41.754Z","actionUser":{"firstName":"Jill","lastName":"Camp"},"id":"567ba13b4b24038af67e8c72"},{"_id":"567ba13d4b24038af67e8c76","comment":"Application Withdrawn in SAGE","historyId":"H416722","name":"Withdrawn","display":"Withdrawn","actionDate":"2009-05-11T17:30:56.823Z","projectId":"567ba12b4b24038af67e8c36","itemId":"A49601","itemType":"application","historyType":"status","lastRefreshDate":"2017-01-26T02:22:41.753Z","actionUser":{"firstName":"Jill","lastName":"Camp"},"id":"567ba13d4b24038af67e8c76"},{"_id":"567ba13c4b24038af67e8c74","comment":"Application Completed in SAGE","historyId":"H416699","name":"Routing","display":"Routing","actionDate":"2009-05-11T16:57:26.080Z","projectId":"567ba12b4b24038af67e8c36","itemId":"A49601","itemType":"application","historyType":"status","lastRefreshDate":"2017-01-26T02:22:41.753Z","actionUser":{"firstName":"Jill","lastName":"Camp"},"id":"567ba13c4b24038af67e8c74"},{"_id":"567ba13c4b24038af67e8c73","comment":"Application Withdrawn in SAGE","historyId":"H416696","name":"Withdrawn","display":"Withdrawn","actionDate":"2009-05-11T16:55:17.030Z","projectId":"567ba12b4b24038af67e8c36","itemId":"A49601","itemType":"application","historyType":"status","lastRefreshDate":"2017-01-26T02:22:41.752Z","actionUser":{"firstName":"Jill","lastName":"Camp"},"id":"567ba13c4b24038af67e8c73"},{"_id":"567ba13e4b24038af67e8c7a","comment":"Application Completed in SAGE","historyId":"H416564","name":"Routing","display":"Routing","actionDate":"2009-05-08T23:44:33.050Z","projectId":"567ba12b4b24038af67e8c36","itemId":"A49601","itemType":"application","historyType":"status","lastRefreshDate":"2017-01-26T02:22:41.751Z","actionUser":{"firstName":"Jill","lastName":"Camp"},"id":"567ba13e4b24038af67e8c7a"},{"_id":"567ba13a4b24038af67e8c6d","comment":"Application Created","historyId":"H415736","name":"Composing","display":"Composing","actionDate":"2009-05-06T23:01:14.463Z","projectId":"567ba12b4b24038af67e8c36","itemId":"A49601","itemType":"application","historyType":"status","lastRefreshDate":"2017-01-26T02:22:41.751Z","actionUser":{"firstName":"Jill","lastName":"Camp"},"id":"567ba13a4b24038af67e8c6d"}]},
{"projectId":"567c192f4b24038af68237a2","subtype":"New Application","shortTitle":"Refining BEST","longTitle":"Refinement of the BEing Safe in Treatment (BEST) Assessment and Feedback Tool","sponsorDeadlineDate":"2012-05-07T07:00:00.000Z","isAfterTheFact":false,"wasSubmittedToSponsorByOsp":true,"people":[{"firstName":"Donald","lastName":"Calsyn","role":"Principal Investigator","email":"calsyn@u.washington.edu","employeeId":"878006619","regId":"9B7B931A6A7C11D5A4AE0004AC494FFE"},{"firstName":"Merrilee","lastName":"Gavigan","role":"Administrative Contact","email":"mgavigan@u.washington.edu","employeeId":"873007917","regId":"EEAA17966A7C11D5A4AE0004AC494FFE"},{"firstName":"Belinda","lastName":"Sachs","role":"Budget Contact","email":"belindab@u.washington.edu","employeeId":"879002038","regId":"91DD631A6A7C11D5A4AE0004AC494FFE"},{"firstName":"Blair","lastName":"Beadnell","role":"Co-Investigator","email":"blairb@u.washington.edu","employeeId":"879002398","regId":"913326AC6A7C11D5A4AE0004AC494FFE"},{"firstName":"Katherine","lastName":"Peavy","role":"Co-Investigator","email":"mipeavy@u.washington.edu","employeeId":"870001354","regId":"2355CAD06A7D11D5A4AE0004AC494FFE"},{"firstName":"Elizabeth","lastName":"Wells","role":"Co-Investigator","email":"bwells@u.washington.edu","employeeId":"880004199","regId":"7CCEA7A46A7C11D5A4AE0004AC494FFE"},{"firstName":"Belinda","lastName":"Sachs","role":"eGC1 Preparer","email":"belindab@u.washington.edu","employeeId":"879002038","regId":"91DD631A6A7C11D5A4AE0004AC494FFE"}],"budgets":[],"sponsor":{"name":"National Institute on Drug Abuse (NIDA)","type":"Federal Government"},"pi":{"firstName":"Donald","lastName":"Calsyn","employeeId":"878006619"},"link":{"genericName":"View eGC1 in SAGE","name":"View eGC1 #A75642 in SAGE","url":"https://eval-sage.admin.uw.edu/eraSquirrelMiner/uwnetid/sage/list.aspx?caid=75642&pg=details"},"familyId":"A75642","exposedItems":[{"itemId":"A75642","type":"application","hold":null,"status":{"egc1":{"name":"Approved","display":"Approved by OSP","actionDate":"2012-05-05T00:06:36.687Z","comment":"Grant Runner is down.\r\nSF424 package completed and confirmed RTS by PI/Dept/OSP. Submitted via Grants.gov: GRANT11127232","actionUser":{"firstName":"Kathryn","lastName":"Hovick"}},"s2s":{"name":"Error In Grants.Gov","display":"Error In Grants.Gov","actionDate":"2012-05-04T18:25:11.233Z","comment":""},"resolved":{"name":"Error In Grants.Gov","display":"Sent to Grants.gov","actionDate":"2012-05-04T18:25:11.233Z","comment":"","phase":"APPLICATION.3"}},"budget":null,"isEndState":false,"isSuccessState":false,"isBlocked":null,"link":null,"contact":{"context":"OSP","displayName":"OSP Helpdesk","email":["osp@uw.edu"],"phone":["+1 206 543-4043"],"department":null},"comments":[],"isGrantRunner":true,"agencyTrackingNumber":null,"grantsGovTrackingNumber":"GRANT11126606"}],"relatedApplications":[],"exposedHistory":[{"_id":"587fb853ce3b3061d53854de","actionDate":"2012-05-04T17:27:35.060Z","comment":"Submitted to Grants.gov with Grant Tracking #GRANT11126606","historyId":"G170826","name":"Submitted","display":"Sent to Grants.gov","projectId":"567c192f4b24038af68237a2","itemId":"A75642","itemType":"application","historyType":"s2sStatus","lastRefreshDate":"2017-01-26T03:09:19.798Z","id":"587fb853ce3b3061d53854de"},{"_id":"587fb853ce3b3061d53854e5","actionDate":"2012-05-04T15:41:14.747Z","comment":"Submitted to Grants.gov with Grant Tracking #GRANT11126487","historyId":"G170766","name":"Submitted","display":"Sent to Grants.gov","projectId":"567c192f4b24038af68237a2","itemId":"A75642","itemType":"application","historyType":"s2sStatus","lastRefreshDate":"2017-01-26T03:09:19.798Z","id":"587fb853ce3b3061d53854e5"},{"_id":"587fb853ce3b3061d53854e1","actionDate":"2012-05-03T17:28:34.897Z","comment":"Submitted to Grants.gov with Grant Tracking #GRANT11125875","historyId":"G170468","name":"Submitted","display":"Sent to Grants.gov","projectId":"567c192f4b24038af68237a2","itemId":"A75642","itemType":"application","historyType":"s2sStatus","lastRefreshDate":"2017-01-26T03:09:19.798Z","id":"587fb853ce3b3061d53854e1"},{"_id":"587fb853ce3b3061d53854e0","actionDate":"2012-05-03T17:06:22.940Z","comment":"Submitted to Grants.gov with Grant Tracking #GRANT11125864","historyId":"G170458","name":"Submitted","display":"Sent to Grants.gov","projectId":"567c192f4b24038af68237a2","itemId":"A75642","itemType":"application","historyType":"s2sStatus","lastRefreshDate":"2017-01-26T03:09:19.797Z","id":"587fb853ce3b3061d53854e0"},{"_id":"567c192f4b24038af682381b","comment":"Automatically received In OSP by SAGE.","historyId":"H869132","name":"In OSP","display":"OSP Reviewing","actionDate":"2012-05-02T20:49:32.167Z","projectId":"567c192f4b24038af68237a2","itemId":"A75642","itemType":"application","historyType":"status","lastRefreshDate":"2017-01-26T03:09:19.785Z","actionUser":{"firstName":"Belinda","lastName":"Sachs"},"id":"567c192f4b24038af682381b"},{"_id":"567c192f4b24038af682381c","comment":"Application Completed in SAGE","historyId":"H869131","name":"Routing","display":"Routing","actionDate":"2012-05-02T20:49:31.793Z","projectId":"567c192f4b24038af68237a2","itemId":"A75642","itemType":"application","historyType":"status","lastRefreshDate":"2017-01-26T03:09:19.785Z","actionUser":{"firstName":"Belinda","lastName":"Sachs"},"id":"567c192f4b24038af682381c"},{"_id":"567c192f4b24038af6823811","comment":"Application Withdrawn in SAGE","historyId":"H868744","name":"Withdrawn","display":"Withdrawn","actionDate":"2012-05-02T15:22:41.713Z","projectId":"567c192f4b24038af68237a2","itemId":"A75642","itemType":"application","historyType":"status","lastRefreshDate":"2017-01-26T03:09:19.786Z","actionUser":{"firstName":"Belinda","lastName":"Sachs"},"id":"567c192f4b24038af6823811"},{"_id":"567c192f4b24038af682380c","comment":"Automatically received In OSP by SAGE.","historyId":"H866769","name":"In OSP","display":"OSP Reviewing","actionDate":"2012-04-27T15:52:53.290Z","projectId":"567c192f4b24038af68237a2","itemId":"A75642","itemType":"application","historyType":"status","lastRefreshDate":"2017-01-26T03:09:19.787Z","actionUser":{"firstName":"V.","lastName":"Douglas"},"id":"567c192f4b24038af682380c"},{"_id":"567c192f4b24038af6823808","comment":"Application Completed in SAGE","historyId":"H866263","name":"Routing","display":"Routing","actionDate":"2012-04-26T20:13:52.353Z","projectId":"567c192f4b24038af68237a2","itemId":"A75642","itemType":"application","historyType":"status","lastRefreshDate":"2017-01-26T03:09:19.787Z","actionUser":{"firstName":"Belinda","lastName":"Sachs"},"id":"567c192f4b24038af6823808"},{"_id":"567c192f4b24038af682381d","comment":"Application Created in SAGE","historyId":"H859859","name":"Composing","display":"Composing","actionDate":"2012-04-16T18:05:07.137Z","projectId":"567c192f4b24038af68237a2","itemId":"A75642","itemType":"application","historyType":"status","lastRefreshDate":"2017-01-26T03:09:19.788Z","actionUser":{"firstName":"Belinda","lastName":"Sachs"},"id":"567c192f4b24038af682381d"}]},
{"projectId":"567c3be14b24038af69f9ff3","subtype":"Competing Revision","shortTitle":"LABS Admin Supp","longTitle":" Longitudinal Assessment of Bariatric Surgery (LABS) ","sponsorDeadlineDate":"2015-05-02T00:00:00.000Z","isAfterTheFact":false,"wasSubmittedToSponsorByOsp":true,"people":[{"firstName":"David","lastName":"Flum","role":"Principal Investigator","email":"daveflum@u.washington.edu","employeeId":"881002711","regId":"3E6117FC6A7E11D5A4AE0004AC494FFE"},{"firstName":"Catherine","lastName":"Wicks","role":"Administrative Contact","email":"catwicks@u.washington.edu","employeeId":"878008299","regId":"986691486A7C11D5A4AE0004AC494FFE"},{"firstName":"Catherine","lastName":"Wicks","role":"Budget Contact","email":"catwicks@u.washington.edu","employeeId":"878008299","regId":"986691486A7C11D5A4AE0004AC494FFE"},{"firstName":"Skye","lastName":"Stewart","role":"Other","email":"skyes@u.washington.edu","employeeId":"857005209","regId":"B425E136EEAB42878C32F8F8D24449E7"},{"firstName":"Catherine","lastName":"Wicks","role":"eGC1 Preparer","email":"catwicks@u.washington.edu","employeeId":"878008299","regId":"986691486A7C11D5A4AE0004AC494FFE"}],"budgets":[],"sponsor":{"name":"National Institutes of Health (NIH)","type":"Federal Government"},"pi":{"firstName":"David","lastName":"Flum","employeeId":"881002711"},"link":{"genericName":"View eGC1 in SAGE","name":"View eGC1 #A101615 in SAGE","url":"https://eval-sage.admin.uw.edu/eraSquirrelMiner/uwnetid/sage/list.aspx?caid=101615&pg=details"},"familyId":"A101615","exposedItems":[{"itemId":"A101615","type":"application","hold":null,"status":{"egc1":{"name":"Approved","display":"Approved by OSP","actionDate":"2015-05-01T21:19:23.933Z","comment":null,"actionUser":{"firstName":"Chrishalodebany","lastName":"Jackson"}},"s2s":{"name":"Error In Agency","display":"Error In Agency","actionDate":"2015-04-29T23:00:09.063Z","comment":"Sponsor Errors and/or Warnings - Action Required\r\nErrors\r\n<ul><li>Continuation provided in the SF 424 RR Cover is invalid. The Type of Application must be Revision. (1.25.9)</li></ul>"},"resolved":{"name":"Error In Agency","display":"Sent to Grants.gov","actionDate":"2015-04-29T23:00:09.063Z","comment":"Sponsor Errors and/or Warnings - Action Required\r\nErrors\r\n<ul><li>Continuation provided in the SF 424 RR Cover is invalid. The Type of Application must be Revision. (1.25.9)</li></ul>","phase":"APPLICATION.3"}},"budget":null,"isEndState":false,"isSuccessState":false,"isBlocked":null,"link":null,"contact":{"context":"OSP","displayName":"OSP Helpdesk","email":["osp@uw.edu"],"phone":["+1 206 543-4043"],"department":null},"comments":[],"isGrantRunner":true,"agencyTrackingNumber":null,"grantsGovTrackingNumber":"GRANT11898490"}],"exposedHistory":[{"_id":"567c3be24b24038af69fa432","comment":"Automatically received In OSP by SAGE.","historyId":"H1527208","name":"In OSP","display":"OSP Reviewing","actionDate":"2015-04-30T22:04:42.690Z","projectId":"567c3be14b24038af69f9ff3","itemId":"A101615","itemType":"application","historyType":"status","lastRefreshDate":"2017-01-26T10:52:07.849Z","actionUser":{"firstName":"Catherine","lastName":"Wicks"},"id":"567c3be24b24038af69fa432"},{"_id":"567c3be24b24038af69fa41b","comment":"Application Completed in SAGE","historyId":"H1527207","name":"Routing","display":"Routing","actionDate":"2015-04-30T22:04:42.533Z","projectId":"567c3be14b24038af69f9ff3","itemId":"A101615","itemType":"application","historyType":"status","lastRefreshDate":"2017-01-26T10:52:07.850Z","actionUser":{"firstName":"Catherine","lastName":"Wicks"},"id":"567c3be24b24038af69fa41b"},{"_id":"567c3be24b24038af69fa426","comment":"return to dept","historyId":"H1526566","name":"Returned","display":"Returned","actionDate":"2015-04-30T16:38:41.297Z","projectId":"567c3be14b24038af69f9ff3","itemId":"A101615","itemType":"application","historyType":"status","lastRefreshDate":"2017-01-26T10:52:07.850Z","actionUser":{"firstName":"Chrishalodebany","lastName":"Jackson"},"id":"567c3be24b24038af69fa426"},{"_id":"567c3be24b24038af69fa43a","comment":"Automatically received In OSP by SAGE.","historyId":"H1526522","name":"In OSP","display":"OSP Reviewing","actionDate":"2015-04-30T16:06:33.903Z","projectId":"567c3be14b24038af69f9ff3","itemId":"A101615","itemType":"application","historyType":"status","lastRefreshDate":"2017-01-26T10:52:07.851Z","actionUser":{"firstName":"Catherine","lastName":"Wicks"},"id":"567c3be24b24038af69fa43a"},{"_id":"567c3be24b24038af69fa448","comment":"Application Completed in SAGE","historyId":"H1526521","name":"Routing","display":"Routing","actionDate":"2015-04-30T16:06:33.530Z","projectId":"567c3be14b24038af69f9ff3","itemId":"A101615","itemType":"application","historyType":"status","lastRefreshDate":"2017-01-26T10:52:07.851Z","actionUser":{"firstName":"Catherine","lastName":"Wicks"},"id":"567c3be24b24038af69fa448"},{"_id":"567c3be24b24038af69fa42e","comment":"4/30/15: Return to Catherine, per SAGE help","historyId":"H1526490","name":"Returned","display":"Returned","actionDate":"2015-04-30T15:40:08.950Z","projectId":"567c3be14b24038af69f9ff3","itemId":"A101615","itemType":"application","historyType":"status","lastRefreshDate":"2017-01-26T10:52:07.852Z","actionUser":{"firstName":"Chrishalodebany","lastName":"Jackson"},"id":"567c3be24b24038af69fa42e"},{"_id":"5873da5ece3b3061d537895b","actionDate":"2015-04-29T22:52:08.697Z","comment":"Submitted to Grants.gov with Grant Tracking #GRANT11898490","historyId":"G451409","name":"Submitted","display":"Sent to Grants.gov","projectId":"567c3be14b24038af69f9ff3","itemId":"A101615","itemType":"application","historyType":"s2sStatus","lastRefreshDate":"2017-01-26T10:52:07.868Z","id":"5873da5ece3b3061d537895b"},{"_id":"5873da5ece3b3061d5378963","actionDate":"2015-04-29T22:21:37.570Z","comment":"Submitted to Grants.gov with Grant Tracking #GRANT11898468","historyId":"G451389","name":"Submitted","display":"Sent to Grants.gov","projectId":"567c3be14b24038af69f9ff3","itemId":"A101615","itemType":"application","historyType":"s2sStatus","lastRefreshDate":"2017-01-26T10:52:07.870Z","id":"5873da5ece3b3061d5378963"},{"_id":"5873da5ece3b3061d5378966","actionDate":"2015-04-29T22:06:15.867Z","comment":"Submitted to Grants.gov with Grant Tracking #GRANT11898456","historyId":"G451375","name":"Submitted","display":"Sent to Grants.gov","projectId":"567c3be14b24038af69f9ff3","itemId":"A101615","itemType":"application","historyType":"s2sStatus","lastRefreshDate":"2017-01-26T10:52:07.872Z","id":"5873da5ece3b3061d5378966"},{"_id":"5873da5ece3b3061d5378969","actionDate":"2015-04-29T21:59:51.167Z","comment":"Submitted to Grants.gov with Grant Tracking #GRANT11898450","historyId":"G451364","name":"Submitted","display":"Sent to Grants.gov","projectId":"567c3be14b24038af69f9ff3","itemId":"A101615","itemType":"application","historyType":"s2sStatus","lastRefreshDate":"2017-01-26T10:52:07.874Z","id":"5873da5ece3b3061d5378969"},{"_id":"5873da5ece3b3061d537895f","actionDate":"2015-04-29T20:21:53.130Z","comment":"Submitted to Grants.gov with Grant Tracking #GRANT11898331","historyId":"G451323","name":"Submitted","display":"Sent to Grants.gov","projectId":"567c3be14b24038af69f9ff3","itemId":"A101615","itemType":"application","historyType":"s2sStatus","lastRefreshDate":"2017-01-26T10:52:07.876Z","id":"5873da5ece3b3061d537895f"},{"_id":"5873da5ece3b3061d537895a","actionDate":"2015-04-29T20:17:32.660Z","comment":"Submitted to Grants.gov with Grant Tracking #GRANT11898321","historyId":"G451317","name":"Submitted","display":"Sent to Grants.gov","projectId":"567c3be14b24038af69f9ff3","itemId":"A101615","itemType":"application","historyType":"s2sStatus","lastRefreshDate":"2017-01-26T10:52:07.877Z","id":"5873da5ece3b3061d537895a"},{"_id":"5873da5ece3b3061d5378962","actionDate":"2015-04-29T20:03:43.200Z","comment":"Submitted to Grants.gov with Grant Tracking #GRANT11898307","historyId":"G451301","name":"Submitted","display":"Sent to Grants.gov","projectId":"567c3be14b24038af69f9ff3","itemId":"A101615","itemType":"application","historyType":"s2sStatus","lastRefreshDate":"2017-01-26T10:52:07.878Z","id":"5873da5ece3b3061d5378962"},{"_id":"5873da5ece3b3061d5378961","actionDate":"2015-04-29T19:49:16.477Z","comment":"Submitted to Grants.gov with Grant Tracking #GRANT11898284","historyId":"G451287","name":"Submitted","display":"Sent to Grants.gov","projectId":"567c3be14b24038af69f9ff3","itemId":"A101615","itemType":"application","historyType":"s2sStatus","lastRefreshDate":"2017-01-26T10:52:07.880Z","id":"5873da5ece3b3061d5378961"},{"_id":"5873da5ece3b3061d537894d","actionDate":"2015-04-29T17:46:30.943Z","comment":"Submitted to Grants.gov with Grant Tracking #GRANT11898113","historyId":"G451236","name":"Submitted","display":"Sent to Grants.gov","projectId":"567c3be14b24038af69f9ff3","itemId":"A101615","itemType":"application","historyType":"s2sStatus","lastRefreshDate":"2017-01-26T10:52:07.883Z","id":"5873da5ece3b3061d537894d"},{"_id":"5873da5ece3b3061d5378956","actionDate":"2015-04-28T23:50:26.973Z","comment":"Submitted to Grants.gov with Grant Tracking #GRANT11897761","historyId":"G450901","name":"Submitted","display":"Sent to Grants.gov","projectId":"567c3be14b24038af69f9ff3","itemId":"A101615","itemType":"application","historyType":"s2sStatus","lastRefreshDate":"2017-01-26T10:52:07.885Z","id":"5873da5ece3b3061d5378956"},{"_id":"5873da5ece3b3061d537894b","actionDate":"2015-04-28T22:03:55.520Z","comment":"Submitted to Grants.gov with Grant Tracking #GRANT11897709","historyId":"G450855","name":"Submitted","display":"Sent to Grants.gov","projectId":"567c3be14b24038af69f9ff3","itemId":"A101615","itemType":"application","historyType":"s2sStatus","lastRefreshDate":"2017-01-26T10:52:07.887Z","id":"5873da5ece3b3061d537894b"},{"_id":"5873da5ece3b3061d5378959","actionDate":"2015-04-28T22:02:01.917Z","comment":"Submitted to Grants.gov with Grant Tracking #GRANT11897706","historyId":"G450849","name":"Submitted","display":"Sent to Grants.gov","projectId":"567c3be14b24038af69f9ff3","itemId":"A101615","itemType":"application","historyType":"s2sStatus","lastRefreshDate":"2017-01-26T10:52:07.888Z","id":"5873da5ece3b3061d5378959"},{"_id":"567c3be24b24038af69fa416","comment":"Automatically received In OSP by SAGE.","historyId":"H1525482","name":"In OSP","display":"OSP Reviewing","actionDate":"2015-04-28T21:59:36.123Z","projectId":"567c3be14b24038af69f9ff3","itemId":"A101615","itemType":"application","historyType":"status","lastRefreshDate":"2017-01-26T10:52:07.853Z","actionUser":{"firstName":"Catherine","lastName":"Wicks"},"id":"567c3be24b24038af69fa416"},{"_id":"567c3be24b24038af69fa421","comment":"Application Completed in SAGE","historyId":"H1525481","name":"Routing","display":"Routing","actionDate":"2015-04-28T21:59:35.983Z","projectId":"567c3be14b24038af69f9ff3","itemId":"A101615","itemType":"application","historyType":"status","lastRefreshDate":"2017-01-26T10:52:07.853Z","actionUser":{"firstName":"Catherine","lastName":"Wicks"},"id":"567c3be24b24038af69fa421"},{"_id":"567c3be24b24038af69fa435","comment":"Return eGC1 toDept","historyId":"H1525464","name":"Returned","display":"Returned","actionDate":"2015-04-28T21:44:33.773Z","projectId":"567c3be14b24038af69f9ff3","itemId":"A101615","itemType":"application","historyType":"status","lastRefreshDate":"2017-01-26T10:52:07.854Z","actionUser":{"firstName":"Chrishalodebany","lastName":"Jackson"},"id":"567c3be24b24038af69fa435"},{"_id":"567c3be24b24038af69fa444","comment":"Automatically received In OSP by SAGE.","historyId":"H1525436","name":"In OSP","display":"OSP Reviewing","actionDate":"2015-04-28T21:01:04.827Z","projectId":"567c3be14b24038af69f9ff3","itemId":"A101615","itemType":"application","historyType":"status","lastRefreshDate":"2017-01-26T10:52:07.854Z","actionUser":{"firstName":"Catherine","lastName":"Wicks"},"id":"567c3be24b24038af69fa444"},{"_id":"567c3be24b24038af69fa429","comment":"Application Completed in SAGE","historyId":"H1525435","name":"Routing","display":"Routing","actionDate":"2015-04-28T21:01:04.670Z","projectId":"567c3be14b24038af69f9ff3","itemId":"A101615","itemType":"application","historyType":"status","lastRefreshDate":"2017-01-26T10:52:07.855Z","actionUser":{"firstName":"Catherine","lastName":"Wicks"},"id":"567c3be24b24038af69fa429"},{"_id":"567c3be24b24038af69fa411","comment":"Return eGC1 to Dept to correct SF424_ Application Type to 'revision'","historyId":"H1525040","name":"Returned","display":"Returned","actionDate":"2015-04-28T17:07:16.493Z","projectId":"567c3be14b24038af69f9ff3","itemId":"A101615","itemType":"application","historyType":"status","lastRefreshDate":"2017-01-26T10:52:07.856Z","actionUser":{"firstName":"Chrishalodebany","lastName":"Jackson"},"id":"567c3be24b24038af69fa411"},{"_id":"5873da5ece3b3061d5378957","actionDate":"2015-04-28T16:53:37.893Z","comment":"Submitted to Grants.gov with Grant Tracking #GRANT11897469","historyId":"G450743","name":"Submitted","display":"Sent to Grants.gov","projectId":"567c3be14b24038af69f9ff3","itemId":"A101615","itemType":"application","historyType":"s2sStatus","lastRefreshDate":"2017-01-26T10:52:07.890Z","id":"5873da5ece3b3061d5378957"},{"_id":"567c3be24b24038af69fa41c","comment":"Automatically received In OSP by SAGE.","historyId":"H1524488","name":"In OSP","display":"OSP Reviewing","actionDate":"2015-04-27T18:52:46.060Z","projectId":"567c3be14b24038af69f9ff3","itemId":"A101615","itemType":"application","historyType":"status","lastRefreshDate":"2017-01-26T10:52:07.856Z","actionUser":{"firstName":"Catherine","lastName":"Wicks"},"id":"567c3be24b24038af69fa41c"},{"_id":"567c3be24b24038af69fa430","comment":"Application Completed in SAGE","historyId":"H1524487","name":"Routing","display":"Routing","actionDate":"2015-04-27T18:52:45.920Z","projectId":"567c3be14b24038af69f9ff3","itemId":"A101615","itemType":"application","historyType":"status","lastRefreshDate":"2017-01-26T10:52:07.857Z","actionUser":{"firstName":"Catherine","lastName":"Wicks"},"id":"567c3be24b24038af69fa430"},{"_id":"567c3be24b24038af69fa43f","comment":"4/24/15:  Return eGC1 to Dept/Catherine, per review comments. Please mark RTS and return to OSP. Thank you, Chris ","historyId":"H1523151","name":"Returned","display":"Returned","actionDate":"2015-04-25T01:22:44.963Z","projectId":"567c3be14b24038af69f9ff3","itemId":"A101615","itemType":"application","historyType":"status","lastRefreshDate":"2017-01-26T10:52:07.857Z","actionUser":{"firstName":"Chrishalodebany","lastName":"Jackson"},"id":"567c3be24b24038af69fa43f"},{"_id":"567c3be24b24038af69fa424","comment":"Automatically received In OSP by SAGE.","historyId":"H1520461","name":"In OSP","display":"OSP Reviewing","actionDate":"2015-04-21T17:56:40.513Z","projectId":"567c3be14b24038af69f9ff3","itemId":"A101615","itemType":"application","historyType":"status","lastRefreshDate":"2017-01-26T10:52:07.858Z","actionUser":{"firstName":"V.","lastName":"Douglas"},"id":"567c3be24b24038af69fa424"},{"_id":"567c3be24b24038af69fa40d","comment":"Application Completed in SAGE","historyId":"H1520121","name":"Routing","display":"Routing","actionDate":"2015-04-20T21:43:07.143Z","projectId":"567c3be14b24038af69f9ff3","itemId":"A101615","itemType":"application","historyType":"status","lastRefreshDate":"2017-01-26T10:52:07.859Z","actionUser":{"firstName":"Catherine","lastName":"Wicks"},"id":"567c3be24b24038af69fa40d"},{"_id":"567c3be24b24038af69fa417","comment":"Application Withdrawn in SAGE","historyId":"H1520115","name":"Withdrawn","display":"Withdrawn","actionDate":"2015-04-20T21:40:03.120Z","projectId":"567c3be14b24038af69f9ff3","itemId":"A101615","itemType":"application","historyType":"status","lastRefreshDate":"2017-01-26T10:52:07.859Z","actionUser":{"firstName":"Catherine","lastName":"Wicks"},"id":"567c3be24b24038af69fa417"},{"_id":"567c3be24b24038af69fa42c","comment":"Application Completed in SAGE","historyId":"H1520114","name":"Routing","display":"Routing","actionDate":"2015-04-20T21:39:53.403Z","projectId":"567c3be14b24038af69f9ff3","itemId":"A101615","itemType":"application","historyType":"status","lastRefreshDate":"2017-01-26T10:52:07.860Z","actionUser":{"firstName":"Catherine","lastName":"Wicks"},"id":"567c3be24b24038af69fa42c"},{"_id":"567c3be24b24038af69fa436","comment":"Application Created in SAGE","historyId":"H1483389","name":"Composing","display":"Composing","actionDate":"2015-02-18T16:41:05.720Z","projectId":"567c3be14b24038af69f9ff3","itemId":"A101615","itemType":"application","historyType":"status","lastRefreshDate":"2017-01-26T10:52:07.861Z","actionUser":{"firstName":"Catherine","lastName":"Wicks"},"id":"567c3be24b24038af69fa436"}],"relatedApplications":[{"itemId":"A17731","shortTitle":"BARIATRIC CONSORTIUM","longTitle":"Bariatric Surgery Research Consortium","subtype":"Non-Competing Renewal","status":{"name":"Awarded","display":"Awarded","actionDate":"2006-09-18T18:04:43.160Z"}},{"itemId":"A17714","shortTitle":"BARIATRIC CONSORTIUM","longTitle":"Bariatric Surgery Research Consortium","subtype":"Non-Competing Renewal","status":{"name":"Awarded","display":"Awarded","actionDate":"2005-09-21T19:18:56.580Z"}},{"itemId":"A8624","shortTitle":"BARIATRIC CONSORTIUM","longTitle":"Bariatric Surgery Research Consortium","subtype":"Non-Competing Renewal","status":{"name":"Awarded","display":"Awarded","actionDate":"2004-09-01T21:20:27.787Z"}},{"itemId":"A2716","shortTitle":"Bariatric Consortium","longTitle":"Bariatric Surgery Clinical Research Consortium","subtype":"Competing Revision","status":{"name":"Awarded","display":"Awarded","actionDate":"2006-09-15T21:23:26.987Z"}},{"itemId":"A27126","shortTitle":"LABS-3 Diabetes Mechan","longTitle":"Bariatric Surgery Research Consortium - LABS-3 Diabetes Mechanisms","subtype":"Supplement and Extension","status":{"name":"Denied By Sponsor","display":"Denied by Sponsor","actionDate":"2011-05-19T20:10:06.240Z"}},{"itemId":"A33220","shortTitle":"Bariatric Consortium","longTitle":"Bariatric Surgery Research Consortium","subtype":"Non-Competing Renewal","status":{"name":"Awarded","display":"Awarded","actionDate":"2007-09-14T17:31:37.653Z"}},{"itemId":"A39854","shortTitle":"Bariatric Consortium","longTitle":"Bariatric Surgery Research Consortium","subtype":"Supplement and Extension","status":{"name":"Approved","display":"Approved by OSP","actionDate":"2008-05-01T03:52:09.250Z"}},{"itemId":"A44262","shortTitle":"LABS Continuation","longTitle":"Longitudinal Assessment of Bariatric Surgery Continuation","subtype":"Competing Renewal","status":{"name":"Awarded","display":"Awarded","actionDate":"2009-08-21T23:25:40.143Z"}},{"itemId":"A58240","shortTitle":"LABS 2","longTitle":"Longitudinal Assessment of Bariatric Surgery","subtype":"Non-Competing Renewal","status":{"name":"Awarded","display":"Awarded","actionDate":"2010-08-03T16:09:10.600Z"}},{"itemId":"A66751","shortTitle":"LABS","longTitle":"Longitudinal Assessment of Bariatric Surgery","subtype":"Non-Competing Renewal","status":{"name":"Awarded","display":"Awarded","actionDate":"2011-09-20T00:00:33.593Z"}},{"itemId":"A75626","shortTitle":"LABS Year 9","longTitle":"Longitudinal Assessment of Bariatric Surgery (LABS)","subtype":"Non-Competing Renewal","status":{"name":"Awarded","display":"Awarded","actionDate":"2012-08-13T15:22:42.663Z"}},{"itemId":"A84305","shortTitle":"LABS Year 10","longTitle":"Longitudinal Assessment of Bariatric Surgery (LABS)","subtype":"Non-Competing Renewal","status":{"name":"Awarded","display":"Awarded","actionDate":"2013-07-25T16:51:38.450Z"}}]},
